Tidied tibble of data from fsce_small — fsce_tidy • scrunchy
…
    Variables include:

cell_id

UMAP dimensions (UMAP1 and UMAP2)

k-means clusters (k_cluster)

Top ten most variable activities (Uracil_45, riboG_44, etc.)

    Examples

fsce_tidy
#> # A tibble: 250 x 18
#>    cell_id   UMAP1  UMAP2 k_cluster Uracil_45 riboG_44  IL7R  CD14   LYZ MS4A1
#>    <chr>     <dbl>  <dbl> <chr>         <dbl>    <dbl> <dbl> <dbl> <dbl> <dbl>
#>  1 TGCGGG…  0.347  -3.03  4             2.26     1.35   3.29     0  0     0   
#>  2 TGGTTC…  0.641   0.926 6             0.880    1.21   0        0  3.75  0   
#>  3 CATATT… -0.0199 -3.19  4             0.705    0.930  0        0  0     2.85
#>  4 TCACAA… -1.25   -3.02  3             0.417    0.417  0        0  0     0   
#>  5 GGAATA…  4.73   -1.39  4             1.38     1.38   2.36     0  0     0   
#>  6 CTTTGC…  4.81   -1.45  4             1.06     1.46   3.49     0  0     0   
#>  7 GTGCAG… -0.443  -2.88  3             1.41     1.01   0        0  0     0   
#>  8 AGCGGT…  1.99   -1.44  4             2.11     0.643  0        0  0     0   
#>  9 GGATGT… -2.09   -3.77  3             1.67     0.891  0        0  0     0   
#> 10 GTACTC… -5.71    8.71  5             0.477    0      0        0  0     0   
#> # ... with 240 more rows, and 8 more variables: CD8A <dbl>, FCGR3A <dbl>,
#> #   MS4A7 <dbl>, GNLY <dbl>, NKG7 <dbl>, FCER1A <dbl>, CST3 <dbl>, PPBP <dbl>
…
