Introduction to scrunchy • scrunchy
…
## harmonizing input:
##   removing 250 sampleMap rows not in names(experiments)

fsce_tidy

## # A tibble: 250 x 8
##    cell_id  UMAP1  UMAP2 k_cluster leiden_cluster cell_cycle Uracil_45
##    <chr>    <dbl>  <dbl> <chr>     <chr>          <chr>          <dbl>
##  1 TGCGGG…  1.91   0.843 2         2              S              1.36 
##  2 TGGTTC… -4.01   0.781 6         4              S              2.16 
##  3 CATATT…  2.50  -0.741 2         2              G2M            1.85 
##  4 TCACAA…  0.891 -8.86  5         3              G1             0.477
##  5 GGAATA… -2.52   3.65  4         4              G1             1.30 
##  6 CTTGGC…  0.606 -8.65  5         3              G2M            1.80 
##  7 GTGAAG… -3.53   2.93  6         1              S              0.895
##  8 AGCGGT… -1.70   1.16  6         1              G1             1.80 
##  9 GGATGT…  7.48   5.61  3         6              S              0    
## 10 GTACTC… -2.30   1.47  6         1              G1             1.39 
## # … with 240 more rows, and 1 more variable: riboG_44 <dbl>
…
